module gitlab.com/ckcmc/ckcmc.gitlab.io

go 1.15

require (
	github.com/wowchemy/wowchemy-hugo-modules/v5 v5.3.0
	github.com/wowchemy/wowchemy-hugo-modules/wowchemy-cms/v5 v5.0.0-20210725202142-0a8115627804 // indirect
	github.com/wowchemy/wowchemy-hugo-modules/wowchemy/v5 v5.0.0-20210725202142-0a8115627804 // indirect
)
